[
  {
    "name": "mcq-single-select",
    "dataUrl": "./assets/json/mcq-single-select/mcq-single-select-2.json"
  },
  {
    "name": "mcq-multiple-select",
    "dataUrl": "./assets/json/mcq-multi-select/mcq-multi-select-1.json"
  },
  {
    "name": "mcq-true-false",
    "dataUrl": "./assets/json/mcq-true-false/mcq-true-false-2.json"
  },
  {
    "name": "mcq-option-image",
    "dataUrl": "./assets/json/mcq-option-image/mcq-option-image-2.json"
  },
  {
    "name": "mcq-qstem-image",
    "dataUrl": "./assets/json/mcq-question-image/mcq-question-image-2.json"
  },
  {
    "name": "fib-text",
    "dataUrl": "./assets/json/fib-text/fib-text-1.json"
  }
]