<svg width="18" height="18" viewBox="0 0 18 18" fill="none" xmlns="http://www.w3.org/2000/svg">
<path fill-rule="evenodd" clip-rule="evenodd" d="M9 0C13.9706 0 18 4.02944 18 9C18 13.9706 13.9706 18 9 18C4.02944 18 0 13.9706 0 9C0 4.02944 4.02944 0 9 0ZM12.4363 5.56364C12.0146 5.14189 11.3309 5.14189 10.9091 5.56364L8.99978 7.47192L7.09088 5.56364L7.00888 5.4895C6.58471 5.14354 5.95904 5.16825 5.56365 5.56364L5.48952 5.64566C5.14355 6.06983 5.16827 6.69552 5.56365 7.09091L7.47193 8.99976L5.56365 10.9091C5.14191 11.3308 5.14191 12.0146 5.56365 12.4364C5.9854 12.8581 6.66914 12.8581 7.09088 12.4364L8.99978 10.5269L10.9091 12.4364L10.9911 12.5105C11.4153 12.8565 12.041 12.8317 12.4363 12.4364L12.5105 12.3543C12.8565 11.9302 12.8317 11.3045 12.4363 10.9091L10.5269 8.99976L12.4363 7.09091C12.8581 6.66916 12.8581 5.98538 12.4363 5.56364Z" fill="url(#paint0_linear)"/>
<defs>
<linearGradient id="paint0_linear" x1="0" y1="9" x2="18" y2="9" gradientUnits="userSpaceOnUse">
<stop stop-color="#6D71FF"/>
<stop offset="1" stop-color="#248EF6"/>
</linearGradient>
</defs>
</svg>
