<?xml version="1.0" encoding="UTF-8"?>
<svg width="11px" height="8px" viewBox="0 0 11 8" version="1.1" xmlns="http://www.w3.org/2000/svg" xmlns:xlink="http://www.w3.org/1999/xlink">
    <!-- Generator: sketchtool 64 (101010) - https://sketch.com -->
    <title>01824E13-5CF7-438E-B4B7-0A7D9C6CC110</title>
    <desc>Created with sketchtool.</desc>
    <g id="Sprites-/-Overlays-/-Assets" stroke="none" stroke-width="1" fill="none" fill-rule="evenodd">
        <g id="SpriteSheet---Tools" transform="translate(-27.000000, -441.000000)" fill="#FFFFFF" fill-rule="nonzero">
            <path d="M32.5987609,444.522444 L37.8596304,447.022405 C37.9452391,447.062904 38,447.151653 38,447.249902 L38,448.749878 C38,448.834877 37.9586304,448.913875 37.8902391,448.960125 C37.8510217,448.986374 37.8060652,448.999874 37.7608696,448.999874 C37.7271522,448.999874 37.6934348,448.992624 37.6618696,448.977374 L32.5,446.524663 L27.3381304,448.977374 C27.2642391,449.013124 27.1781522,449.005874 27.1097609,448.960125 C27.0413696,448.913875 27,448.834877 27,448.749878 L27,447.249902 C27,447.151653 27.0547609,447.062904 27.1401304,447.022405 L32.401,444.522444 C32.4638913,444.492445 32.5358696,444.492445 32.5987609,444.522444 Z M32.5987609,441.0225 L37.8596304,443.52246 C37.9452391,443.56296 38,443.651958 38,443.749957 L38,445.249933 C38,445.334932 37.9586304,445.41393 37.8902391,445.46018 C37.8510217,445.486429 37.8060652,445.49995 37.7608696,445.49995 C37.7271522,445.49995 37.6934348,445.492679 37.6618696,445.477429 L32.5,443.024718 L27.3381304,445.477429 C27.2642391,445.512929 27.1781522,445.505929 27.1097609,445.46018 C27.0413696,445.41393 27,445.334932 27,445.249933 L27,443.749957 C27,443.651958 27.0547609,443.56296 27.1401304,443.52246 L32.401,441.0225 C32.4638913,440.9925 32.5358696,440.9925 32.5987609,441.0225 Z" id="ic.Tool.Menu.Collapse" transform="translate(32.500000, 445.000000) scale(1, -1) translate(-32.500000, -445.000000) "></path>
        </g>
    </g>
</svg>