{
    "page": 1,
    "limit": 5,
    "total": 10,
    "data": [
        {
           "schoolName" : "Zigma Matriculation School Chennai",
           "curriculum" : "TNSB_Zigma Matriculation School Chennai Content",
           "state" : "Tamil Nadu",
           "lastSyncOn" : "Yesteday, 10pm"
        },
        {
            "schoolName" : "Zigma Matriculation School Chennai",
            "curriculum" : "TNSB_Zigma Matriculation School Chennai Content",
            "state" : "Tamil Nadu",
            "lastSyncOn" : "Yesteday, 10pm"
        },
        {
            "schoolName" : "Zigma Matriculation School Chennai",
            "curriculum" : "TNSB_Zigma Matriculation School Chennai Content",
            "state" : "Tamil Nadu",
            "lastSyncOn" : "Yesteday, 10pm"
         },
         {
             "schoolName" : "Zigma Matriculation School Chennai",
             "curriculum" : "TNSB_Zigma Matriculation School Chennai Content",
             "state" : "Tamil Nadu",
             "lastSyncOn" : "Yesteday, 10pm"
         },
         {
            "schoolName" : "Zigma Matriculation School Chennai",
            "curriculum" : "TNSB_Zigma Matriculation School Chennai Content",
            "state" : "Tamil Nadu",
            "lastSyncOn" : "Yesteday, 10pm"
         },
         {
             "schoolName" : "Zigma Matriculation School Chennai",
             "curriculum" : "TNSB_Zigma Matriculation School Chennai Content",
             "state" : "Tamil Nadu",
             "lastSyncOn" : "Yesteday, 10pm"
         },
         {
             "schoolName" : "Zigma Matriculation School Chennai",
             "curriculum" : "TNSB_Zigma Matriculation School Chennai Content",
             "state" : "Tamil Nadu",
             "lastSyncOn" : "Yesteday, 10pm"
          },
          {
              "schoolName" : "Zigma Matriculation School Chennai",
              "curriculum" : "TNSB_Zigma Matriculation School Chennai Content",
              "state" : "Tamil Nadu",
              "lastSyncOn" : "Yesteday, 10pm"
          },
          {
            "schoolName" : "Zigma Matriculation School Chennai",
            "curriculum" : "TNSB_Zigma Matriculation School Chennai Content",
            "state" : "Tamil Nadu",
            "lastSyncOn" : "Yesteday, 10pm"
         },
         {
             "schoolName" : "Zigma Matriculation School Chennai",
             "curriculum" : "TNSB_Zigma Matriculation School Chennai Content",
             "state" : "Tamil Nadu",
             "lastSyncOn" : "Yesteday, 10pm"
         }
    ]
}