{
  "access_token": "fb765255-446b-452f-871a-9fd5c5e4c1f4",
  "token_type": "bearer",
  "refresh_token": "1c0aa3d2-f5c7-46d8-baa4-cafa9bb2d09d",
  "expires_in": 299,
  "scope": "all",
  "loginstatus": 1
}
