<?xml version="1.0" encoding="UTF-8"?>
<svg width="16px" height="16px" viewBox="0 0 16 16" version="1.1" xmlns="http://www.w3.org/2000/svg" xmlns:xlink="http://www.w3.org/1999/xlink">
    <!-- Generator: sketchtool 55.2 (78181) - https://sketchapp.com -->
    <title>5B96232C-D538-42F2-947A-49F50767BB94</title>
    <desc>Created with sketchtool.</desc>
    <g id="Sprites-/-Overlays-/-Assets" stroke="none" stroke-width="1" fill="none" fill-rule="evenodd">
        <g id="SpriteSheet---Misc" transform="translate(-166.000000, -121.000000)" fill="#FFFFFF" stroke="#FFFFFF">
            <path d="M180.743223,134.574668 L176.910187,130.739981 C177.597264,129.802839 177.965328,128.669857 177.960197,127.507824 C177.947087,124.474532 175.493796,122.017575 172.460645,122.000056 C171.009112,121.993488 169.61524,122.56774 168.589545,123.594884 C167.56385,124.622028 166.991535,126.016742 167.000095,127.468322 C167.013204,130.50189 169.466719,132.95907 172.500146,132.97659 C173.666867,132.981647 174.803944,132.609272 175.741676,131.915038 L175.745676,131.912038 L179.575212,135.743725 C179.782262,135.960949 180.090782,136.048876 180.381234,135.973439 C180.671686,135.898001 180.898431,135.671053 180.973617,135.380525 C181.048803,135.089997 180.960615,134.781541 180.743223,134.574668 L180.743223,134.574668 Z M172.496146,131.878537 C170.069537,131.864577 168.106757,129.899043 168.096105,127.472322 C168.089555,126.311208 168.547445,125.195662 169.367847,124.374007 C170.188248,123.552352 171.303069,123.092786 172.464145,123.097609 C174.890754,123.111569 176.853534,125.077103 176.864186,127.503824 C176.870736,128.664937 176.412846,129.780484 175.592444,130.602139 C174.772043,131.423793 173.657222,131.88336 172.496146,131.878537 Z" id="ic.ContentActions.Search"></path>
        </g>
    </g>
</svg>