{
  "curriculumVO": {
      "curriculumId": "cur-f1d1ba1f-20c6-48d3-83c1-552cf6f747d3",
      "grades": [
          {
              "gradeId": "grd-1f4c7dde-7e86-4d96-9915-767b5b52da51",
              "gradeTitle": "Class 4",
              "schoolGrdId": "schgrd-57a9ff7a-2900-4f1f-9c3a-ca717bce46d8",
              "orderNo": "5",
              "subjects": [
                  {
                      "subjectId": "sub-ae8fce9e-0bfc-4c9c-9562-9d5823788a6b",
                      "title": "Mathematics",
                      "books": {
                          "bookId": "book-58964e2f-c48b-44d8-a4ed-9db38e89e4c7",
                          "title": "Math-Magic 2"
                      }
                  }
              ],
              "divisions": [
                  {
                      "gradeTitle": "Class 4",
                      "divisionTitle": "A"
                  },
                  {
                      "gradeTitle": "Class 4",
                      "divisionTitle": "B"
                  }
              ]
          },
          {
              "gradeId": "grd-bb851b0a-2b42-4ed7-b6b0-5fd165dcefd3",
              "gradeTitle": "Class 8",
              "schoolGrdId": "schgrd-f7f4dc4e-5d66-4550-9f2d-7a5c84466f1d",
              "orderNo": "9",
              "subjects": [
                  {
                      "subjectId": "sub-ae8fce9e-0bfc-4c9c-9562-9d5823788a6b",
                      "title": "Mathematics",
                      "books": {
                          "bookId": "book-92b0a714-6681-4c75-9806-43bd0de96bdd",
                          "title": "Mathematics 8"
                      }
                  },
                  {
                      "subjectId": "sub-bb9e7451-4661-4021-9317-ec89e570f699",
                      "title": "Sanskrit Literature",
                      "books": {
                          "bookId": "book-f95992b2-6989-433e-919a-8e0d8dfee501",
                          "title": "Sanskrit Literature CBSE Hindi Grade 8"
                      }
                  },
                  {
                      "subjectId": "sub-e71b1a16-85ea-4e12-bb4f-5cb58a98cc54",
                      "title": "Political Science",
                      "books": {
                          "bookId": "book-5918dabc-7610-4ef0-91f4-5b599b097fa4",
                          "title": "Social And Political Life-III Grade 8"
                      }
                  },
                  {
                      "subjectId": "sub-e8f077de-7d1a-494f-a3c0-dd6ec8c651a5",
                      "title": "Computer Science",
                      "books": {
                          "bookId": "book-afdf51c4-3193-4f37-8e9f-14b69e77754f",
                          "title": "Mathematics 11"
                      }
                  }
              ],
              "divisions": [
                  {
                      "gradeTitle": "Class 8",
                      "divisionTitle": "A"
                  }
              ]
          }
      ],
      "levels": [
          {
              "levelId": "lev-223a64eb-db61-4b4e-bdd2-d03cb329daeb",
              "levelTitle": "Primary",
              "subjects": null
          },
          {
              "levelId": "lev-b1da160a-9168-40ba-b826-3366207bb713",
              "levelTitle": "General Awareness",
              "subjects": null
          },
          {
              "levelId": "lev-ce42c259-f78c-45dc-aaa3-fd2449cc3059",
              "levelTitle": "Secondary",
              "subjects": null
          }
      ]
  },
  "sessionKeys": {
      "keyHex": "66db058efaba9577899bc8be863b8f640c530bdb901b10c47f2be38039815c31",
      "ivHex": "aeeb61aa95106e145e11b27a3a09666f"
  }
}
